waveforms/tb_cpu.vcd
$date
	Sun May 12 00:16:11 2024
$end
$version
	Icarus Verilog
$end
$timescale
	100ps
$end
$scope module tb_cpu $end
$var wire 1 ! readM $end
$var wire 16 " output_port [15:0] $end
$var wire 16 # num_inst [15:0] $end
$var wire 16 $ data [15:0] $end
$var wire 16 % address [15:0] $end
$var reg 1 & clk $end
$var reg 1 ' inputReady $end
$var reg 16 ( outputData [15:0] $end
$var reg 1 ) reset_n $end
$scope module UUT $end
$var wire 1 & clk $end
$var wire 16 * data [15:0] $end
$var wire 1 ' inputReady $end
$var wire 1 ) reset_n $end
$var wire 1 + sign_ex $end
$var wire 1 ! readM $end
$var wire 16 , output_port [15:0] $end
$var wire 4 - opcode [3:0] $end
$var wire 16 . num_inst [15:0] $end
$var wire 1 / isWWD $end
$var wire 6 0 func_code [5:0] $end
$var wire 16 1 address [15:0] $end
$var wire 1 2 RegWrite $end
$var wire 1 3 RegDst $end
$var wire 1 4 Jump $end
$var wire 1 5 ALUSrc $end
$var wire 1 6 ALUOp $end
$scope module Control $end
$var wire 1 6 ALUOp $end
$var wire 1 5 ALUSrc $end
$var wire 1 7 Is_Itype $end
$var wire 1 2 RegWrite $end
$var wire 1 / isWWD $end
$var wire 1 ) reset_n $end
$var wire 1 + sign_ex $end
$var wire 4 8 opcode [3:0] $end
$var wire 6 9 func_code [5:0] $end
$var wire 1 3 RegDst $end
$var wire 1 4 Jump $end
$upscope $end
$scope module DP $end
$var wire 1 6 ALUOp $end
$var wire 1 5 ALUSrc $end
$var wire 16 : ALUin1 [15:0] $end
$var wire 1 4 Jump $end
$var wire 1 3 RegDst $end
$var wire 1 2 RegWrite $end
$var wire 16 ; address [15:0] $end
$var wire 1 & clk $end
$var wire 16 < data [15:0] $end
$var wire 16 = data3_rf [15:0] $end
$var wire 1 ' inputReady $end
$var wire 1 / isWWD $end
$var wire 16 > num_inst [15:0] $end
$var wire 1 ) reset_n $end
$var wire 1 + sign_ex $end
$var wire 1 ? write $end
$var wire 12 @ target_addr [11:0] $end
$var wire 1 ! readM $end
$var wire 16 A output_port [15:0] $end
$var wire 4 B opcode [3:0] $end
$var wire 16 C imm_extend [15:0] $end
$var wire 8 D imm [7:0] $end
$var wire 6 E func_code [5:0] $end
$var wire 16 F data2_rf [15:0] $end
$var wire 16 G data1_rf [15:0] $end
$var wire 2 H Addr3_rf [1:0] $end
$var wire 2 I Addr2_rf [1:0] $end
$var wire 2 J Addr1_rf [1:0] $end
$var wire 16 K ALUout [15:0] $end
$var wire 16 L ALUin2 [15:0] $end
$var reg 16 M address_reg [15:0] $end
$var reg 16 N inst_reg [15:0] $end
$var reg 16 O num_inst_reg [15:0] $end
$var reg 1 ! readM_reg $end
$scope module ALU $end
$var wire 16 P A [15:0] $end
$var wire 16 Q B [15:0] $end
$var wire 1 6 OP $end
$var reg 16 R C [15:0] $end
$var reg 1 S Cout $end
$upscope $end
$scope module RF $end
$var wire 2 T addr1 [1:0] $end
$var wire 2 U addr2 [1:0] $end
$var wire 2 V addr3 [1:0] $end
$var wire 1 & clk $end
$var wire 16 W data1 [15:0] $end
$var wire 16 X data2 [15:0] $end
$var wire 16 Y data3 [15:0] $end
$var wire 1 ) reset_n $end
$var wire 1 2 write $end
$upscope $end
$upscope $end
$upscope $end
$upscope $end
$enddefinitions $end
#0
$dumpvars
bx Y
bx X
bx W
bx V
bx U
bx T
xS
bx R
bx Q
bx P
bx O
bx N
bx M
bx L
bx K
bx J
bx I
bx H
bx G
bx F
bx E
bx D
bx C
bx B
bx A
bx @
x?
bx >
bx =
bz <
bx ;
bx :
bx 9
bx 8
x7
x6
x5
x4
x3
x2
bx 1
bx 0
x/
bx .
bx -
bx ,
x+
bz *
1)
bz (
0'
0&
bx %
bz $
bx #
bx "
x!
$end
#250
b0 #
b0 .
b0 >
b0 O
b0 %
b0 1
b0 ;
b0 M
0)
#500
1&
#1000
0&
#1250
1)
#1500
b1 #
b1 .
b1 >
b1 O
1!
1&
#1800
0S
b0 =
b0 Y
b0 K
b0 R
16
1?
12
bz "
bz ,
bz A
b0 L
b0 Q
b0 C
15
17
0/
b0 H
b0 V
b0 :
b0 P
b0 G
b0 W
b0 J
b0 T
b0 F
b0 X
b0 I
b0 U
b0 D
b0 @
0+
04
03
b110 -
b110 8
b110 B
b0 0
b0 9
b0 E
0!
b110000000000000 N
bz $
bz *
bz <
1'
b110000000000000 (
#1900
b1 %
b1 1
b1 ;
b1 M
0'
bz (
#2000
0&
#2500
b10 #
b10 .
b10 >
b10 O
1!
1&
#2800
b100000000 =
b100000000 Y
b100000000 K
b100000000 R
b100000000 L
b100000000 Q
b100000000 C
b1 H
b1 V
b1 I
b1 U
b1 D
b100000001 @
b1 0
b1 9
b1 E
0!
b110000100000001 N
bz $
bz *
bz <
1'
b110000100000001 (
#2900
b10 %
b10 1
b10 ;
b10 M
0'
bz (
#3000
0&
#3500
b11 #
b11 .
b11 >
b11 O
1!
b100000000 F
b100000000 X
1&
#3800
b1000000000 =
b1000000000 Y
b1000000000 K
b1000000000 R
b1000000000 L
b1000000000 Q
b1000000000 C
b10 H
b10 V
b0 F
b0 X
b10 I
b10 U
b10 D
b1000000010 @
b10 0
b10 9
b10 E
0!
b110001000000010 N
bz $
bz *
bz <
1'
b110001000000010 (
#3900
b11 %
b11 1
b11 ;
b11 M
0'
bz (
#4000
0&
#4500
b1000000000 F
b1000000000 X
b100 #
b100 .
b100 >
b100 O
1!
1&
#4800
b1100000000 =
b1100000000 Y
b1100000000 K
b1100000000 R
b1100000000 L
b1100000000 Q
b1100000000 C
b11 H
b11 V
b0 F
b0 X
b11 I
b11 U
b11 D
b1100000011 @
b11 0
b11 9
b11 E
0!
b110001100000011 N
bz $
bz *
bz <
1'
b110001100000011 (
#4900
b100 %
b100 1
b100 ;
b100 M
0'
bz (
#5000
0&
#5500
b101 #
b101 .
b101 >
b101 O
1!
b1100000000 F
b1100000000 X
1&
#5800
0?
02
b0 =
b0 Y
b0 K
b0 R
06
b0 L
b0 Q
b0 "
b0 ,
b0 A
b1110000000000 C
05
07
1/
b0 H
b0 V
b0 F
b0 X
b0 I
b0 U
b11100 D
b11100 @
13
b1111 -
b1111 8
b1111 B
b11100 0
b11100 9
b11100 E
0!
b1111000000011100 N
bz $
bz *
bz <
1'
b1111000000011100 (
#5900
b101 %
b101 1
b101 ;
b101 M
0'
bz (
#6000
0&
#6500
b110 #
b110 .
b110 >
b110 O
1!
1&
#6800
b100000000 "
b100000000 ,
b100000000 A
b100000000 =
b100000000 Y
b100000000 K
b100000000 R
b100000000 :
b100000000 P
b100000000 G
b100000000 W
b1 J
b1 T
b10000011100 @
0!
b1111010000011100 N
bz $
bz *
bz <
1'
b1111010000011100 (
#6900
b110 %
b110 1
b110 ;
b110 M
0'
bz (
#7000
0&
#7500
b111 #
b111 .
b111 >
b111 O
1!
1&
#7800
b1000000000 "
b1000000000 ,
b1000000000 A
b1000000000 =
b1000000000 Y
b1000000000 K
b1000000000 R
b1000000000 :
b1000000000 P
b1000000000 G
b1000000000 W
b10 J
b10 T
b100000011100 @
0!
b1111100000011100 N
bz $
bz *
bz <
1'
b1111100000011100 (
#7900
b111 %
b111 1
b111 ;
b111 M
0'
bz (
#8000
0&
#8500
b1000 #
b1000 .
b1000 >
b1000 O
1!
1&
#8800
b1100000000 "
b1100000000 ,
b1100000000 A
b1100000000 =
b1100000000 Y
b1100000000 K
b1100000000 R
b1100000000 :
b1100000000 P
b1100000000 G
b1100000000 W
b11 J
b11 T
b110000011100 @
0!
b1111110000011100 N
bz $
bz *
bz <
1'
b1111110000011100 (
#8900
b1000 %
b1000 1
b1000 ;
b1000 M
0'
bz (
#9000
0&
#9500
b1001 #
b1001 .
b1001 >
b1001 O
1!
1&
#9800
1?
12
bz "
bz ,
bz A
b100 =
b100 Y
b100 K
b100 R
b100 L
b100 Q
b100 C
b10 H
b10 V
15
17
0/
b0 :
b0 P
b0 G
b0 W
b0 J
b0 T
b1000000000 F
b1000000000 X
b10 I
b10 U
b100 D
b1000000100 @
1+
03
b100 -
b100 8
b100 B
b100 0
b100 9
b100 E
0!
b100001000000100 N
bz $
bz *
bz <
1'
b100001000000100 (
#9900
b1001 %
b1001 1
b1001 ;
b1001 M
0'
bz (
#10000
0&
#10500
b100 F
b100 X
b1010 #
b1010 .
b1010 >
b1010 O
1!
1&
#10800
1S
b1111111111111100 L
b1111111111111100 Q
b11111100 =
b11111100 Y
b11111100 K
b11111100 R
b1111111111111100 C
b11 H
b11 V
b100000000 :
b100000000 P
b100000000 G
b100000000 W
b1 J
b1 T
b1100000000 F
b1100000000 X
b11 I
b11 U
b11111100 D
b11111111100 @
b111100 0
b111100 9
b111100 E
0!
b100011111111100 N
bz $
bz *
bz <
1'
b100011111111100 (
#10900
b1010 %
b1010 1
b1010 ;
b1010 M
0'
bz (
#11000
0&
#11500
b1011 #
b1011 .
b1011 >
b1011 O
1!
b11111100 F
b11111100 X
1&
#11800
0?
02
0S
b0 L
b0 Q
b100 "
b100 ,
b100 A
b100 =
b100 Y
b100 K
b100 R
b1110000000000 C
05
07
1/
b0 H
b0 V
b100 :
b100 P
b100 G
b100 W
b10 J
b10 T
b0 F
b0 X
b0 I
b0 U
b11100 D
b100000011100 @
0+
13
b1111 -
b1111 8
b1111 B
b11100 0
b11100 9
b11100 E
0!
b1111100000011100 N
bz $
bz *
bz <
1'
b1111100000011100 (
#11900
b1011 %
b1011 1
b1011 ;
b1011 M
0'
bz (
#12000
0&
#12500
b1100 #
b1100 .
b1100 >
b1100 O
1!
1&
#12800
b11111100 "
b11111100 ,
b11111100 A
b11111100 =
b11111100 Y
b11111100 K
b11111100 R
b11111100 :
b11111100 P
b11111100 G
b11111100 W
b11 J
b11 T
b110000011100 @
0!
b1111110000011100 N
bz $
bz *
bz <
1'
b1111110000011100 (
#12900
b1100 %
b1100 1
b1100 ;
b1100 M
0'
bz (
#13000
0&
#13500
b1101 #
b1101 .
b1101 >
b1101 O
1!
1&
#13800
1?
12
bz "
bz ,
bz A
b100000100 =
b100000100 Y
b100000100 K
b100000100 R
b100 L
b100 Q
b1100000000000000 C
0/
b11 H
b11 V
b100000000 :
b100000000 P
b100000000 G
b100000000 W
b1 J
b1 T
b100 F
b100 X
b10 I
b10 U
b11000000 D
b11011000000 @
b0 0
b0 9
b0 E
0!
b1111011011000000 N
bz $
bz *
bz <
1'
b1111011011000000 (
#13900
b1101 %
b1101 1
b1101 ;
b1101 M
0'
bz (
#14000
0&
#14500
b1110 #
b1110 .
b1110 >
b1110 O
1!
1&
#14800
b100000000 =
b100000000 Y
b100000000 K
b100000000 R
b100000000 L
b100000000 Q
b1000000000000000 C
b10 H
b10 V
b0 :
b0 P
b0 G
b0 W
b0 J
b0 T
b100000000 F
b100000000 X
b1 I
b1 U
b10000000 D
b110000000 @
0!
b1111000110000000 N
bz $
bz *
bz <
1'
b1111000110000000 (
#14900
b1110 %
b1110 1
b1110 ;
b1110 M
0'
bz (
#15000
0&
#15500
b1111 #
b1111 .
b1111 >
b1111 O
1!
1&
#15800
0?
02
b100000000 "
b100000000 ,
b100000000 A
b0 L
b0 Q
b1110000000000 C
1/
b0 H
b0 V
b100000000 :
b100000000 P
b100000000 G
b100000000 W
b10 J
b10 T
b0 F
b0 X
b0 I
b0 U
b11100 D
b100000011100 @
b11100 0
b11100 9
b11100 E
0!
b1111100000011100 N
bz $
bz *
bz <
1'
b1111100000011100 (
#15900
b1111 %
b1111 1
b1111 ;
b1111 M
0'
bz (
#16000
0&
#16500
b10000 #
b10000 .
b10000 >
b10000 O
1!
1&
#16800
b100000100 "
b100000100 ,
b100000100 A
b100000100 =
b100000100 Y
b100000100 K
b100000100 R
b100000100 :
b100000100 P
b100000100 G
b100000100 W
b11 J
b11 T
b110000011100 @
0!
b1111110000011100 N
bz $
bz *
bz <
1'
b1111110000011100 (
#16900
b10000 %
b10000 1
b10000 ;
b10000 M
0'
bz (
#17000
0&
#17500
b10001 #
b10001 .
b10001 >
b10001 O
1!
1&
#17800
16
bz "
bz ,
bz A
b0 =
b0 Y
b0 K
b0 R
b1010100000000 C
0/
b0 :
b0 P
b0 G
b0 W
b0 J
b0 T
b10101 D
b10101 @
14
03
b1001 -
b1001 8
b1001 B
b10101 0
b10101 9
b10101 E
0!
b1001000000010101 N
bz $
bz *
bz <
1'
b1001000000010101 (
#17900
b10101 %
b10101 1
b10101 ;
b10101 M
0'
bz (
#18000
0&
#18500
b10010 #
b10010 .
b10010 >
b10010 O
1!
1&
#18800
1?
12
b0 C
15
17
b0 D
b0 @
04
b110 -
b110 8
b110 B
b0 0
b0 9
b0 E
0!
b110000000000000 N
bz $
bz *
bz <
1'
b110000000000000 (
#18900
b10110 %
b10110 1
b10110 ;
b10110 M
0'
bz (
#19000
0&
#19500
b10011 #
b10011 .
b10011 >
b10011 O
1!
1&
#19800
06
1+
b100 -
b100 8
b100 B
0!
b100000000000000 N
bz $
bz *
bz <
1'
b100000000000000 (
#19900
b10111 %
b10111 1
b10111 ;
b10111 M
0'
bz (
#20000
0&
#20500
b10100 #
b10100 .
b10100 >
b10100 O
1!
1&
#20800
b100000000 L
b100000000 Q
b1000000100 =
b1000000100 Y
b1000000100 K
b1000000100 R
b1000000000000000 C
05
07
b10 H
b10 V
b100000100 :
b100000100 P
b100000100 G
b100000100 W
b11 J
b11 T
b100000000 F
b100000000 X
b1 I
b1 U
b10000000 D
b110110000000 @
0+
13
b1111 -
b1111 8
b1111 B
0!
b1111110110000000 N
bz $
bz *
bz <
1'
b1111110110000000 (
#20900
b11000 %
b11000 1
b11000 ;
b11000 M
0'
bz (
#21000
0&
#21500
b10101 #
b10101 .
b10101 >
b10101 O
1!
1&
#21800
0?
02
b0 "
b0 ,
b0 A
b0 =
b0 Y
b0 K
b0 R
b0 L
b0 Q
b1110000000000 C
1/
b0 H
b0 V
b0 :
b0 P
b0 G
b0 W
b0 J
b0 T
b0 F
b0 X
b0 I
b0 U
b11100 D
b11100 @
b11100 0
b11100 9
b11100 E
0!
b1111000000011100 N
bz $
bz *
bz <
1'
b1111000000011100 (
#21900
b11001 %
b11001 1
b11001 ;
b11001 M
0'
bz (
#22000
0&
#22500
b10110 #
b10110 .
b10110 >
b10110 O
1!
1&
#22800
b100000000 "
b100000000 ,
b100000000 A
b100000000 =
b100000000 Y
b100000000 K
b100000000 R
b100000000 :
b100000000 P
b100000000 G
b100000000 W
b1 J
b1 T
b10000011100 @
0!
b1111010000011100 N
bz $
bz *
bz <
1'
b1111010000011100 (
#22900
b11010 %
b11010 1
b11010 ;
b11010 M
0'
bz (
#23000
0&
#23500
b10111 #
b10111 .
b10111 >
b10111 O
1!
1&
#23800
b1000000100 "
b1000000100 ,
b1000000100 A
b1000000100 =
b1000000100 Y
b1000000100 K
b1000000100 R
b1000000100 :
b1000000100 P
b1000000100 G
b1000000100 W
b10 J
b10 T
b100000011100 @
0!
b1111100000011100 N
bz $
bz *
bz <
1'
b1111100000011100 (
#23900
b11011 %
b11011 1
b11011 ;
b11011 M
0'
bz (
#24000
0&
#24500
b11000 #
b11000 .
b11000 >
b11000 O
1!
1&
#24800
b100000100 "
b100000100 ,
b100000100 A
b100000100 =
b100000100 Y
b100000100 K
b100000100 R
b100000100 :
b100000100 P
b100000100 G
b100000100 W
b11 J
b11 T
b110000011100 @
0!
b1111110000011100 N
bz $
bz *
bz <
1'
b1111110000011100 (
#24900
b11100 %
b11100 1
b11100 ;
b11100 M
0'
bz (
#25000
0&
#25500
b11001 #
b11001 .
b11001 >
b11001 O
1!
1&
#25800
x6
x?
x2
bx "
bx ,
bx A
xS
bx =
bx Y
bx K
bx R
bx L
bx Q
bx C
x5
x7
x/
bx H
bx V
bx :
bx P
bx G
bx W
bx J
bx T
bx F
bx X
bx I
bx U
bx D
bx @
x+
x4
x3
bx -
bx 8
bx B
bx 0
bx 9
bx E
0!
bx N
bz $
bz *
bz <
1'
bx (
#25900
b11101 %
b11101 1
b11101 ;
b11101 M
0'
bz (
#26000
0&
#26500
b11010 #
b11010 .
b11010 >
b11010 O
1!
1&
#26800
0!
bz $
bz *
bz <
1'
bx (
#26900
b11110 %
b11110 1
b11110 ;
b11110 M
0'
bz (
#27000
0&
#27500
b11011 #
b11011 .
b11011 >
b11011 O
1!
1&
#27800
0!
bz $
bz *
bz <
1'
bx (
#27900
b11111 %
b11111 1
b11111 ;
b11111 M
0'
bz (
#28000
0&
#28500
b11100 #
b11100 .
b11100 >
b11100 O
1!
1&
#28800
0!
bz $
bz *
bz <
1'
bx (
#28900
b100000 %
b100000 1
b100000 ;
b100000 M
0'
bz (
#29000
0&
#29500
b11101 #
b11101 .
b11101 >
b11101 O
1!
1&
#29800
0!
bz $
bz *
bz <
1'
bx (
#29900
b100001 %
b100001 1
b100001 ;
b100001 M
0'
bz (
#30000
0&
#30500
b11110 #
b11110 .
b11110 >
b11110 O
1!
1&
#30800
0!
bz $
bz *
bz <
1'
bx (
#30900
b100010 %
b100010 1
b100010 ;
b100010 M
0'
bz (
